<?xml version="1.0" encoding="UTF-8" standalone="no"?>
<svg
   xmlns:dc="http://purl.org/dc/elements/1.1/"
   xmlns:cc="http://creativecommons.org/ns#"
   xmlns:rdf="http://www.w3.org/1999/02/22-rdf-syntax-ns#"
   xmlns:svg="http://www.w3.org/2000/svg"
   xmlns="http://www.w3.org/2000/svg"
   xmlns:sodipodi="http://sodipodi.sourceforge.net/DTD/sodipodi-0.dtd"
   xmlns:inkscape="http://www.inkscape.org/namespaces/inkscape"
   width="61.621181mm"
   height="45.623394mm"
   viewBox="0 0 61.621181 45.623394"
   version="1.1"
   id="svg96"
   inkscape:version="1.0.2 (e86c870879, 2021-01-15, custom)"
   sodipodi:docname="road_02.svg">
  <defs
     id="defs90" />
  <sodipodi:namedview
     id="base"
     pagecolor="#ffffff"
     bordercolor="#666666"
     borderopacity="1.0"
     inkscape:pageopacity="0.0"
     inkscape:pageshadow="2"
     inkscape:zoom="1.979899"
     inkscape:cx="300.36055"
     inkscape:cy="167.3351"
     inkscape:document-units="mm"
     inkscape:current-layer="layer1"
     inkscape:document-rotation="0"
     showgrid="false"
     fit-margin-top="0"
     fit-margin-left="0"
     fit-margin-right="0"
     fit-margin-bottom="0"
     inkscape:window-width="1267"
     inkscape:window-height="967"
     inkscape:window-x="2345"
     inkscape:window-y="74"
     inkscape:window-maximized="0" />
  <metadata
     id="metadata93">
    <rdf:RDF>
      <cc:Work
         rdf:about="">
        <dc:format>image/svg+xml</dc:format>
        <dc:type
           rdf:resource="http://purl.org/dc/dcmitype/StillImage" />
        <dc:title></dc:title>
      </cc:Work>
    </rdf:RDF>
  </metadata>
  <g
     inkscape:label="Layer 1"
     inkscape:groupmode="layer"
     id="layer1"
     transform="translate(-78.349924,-77.401557)">
    <path
       style="fill:#000000;stroke-width:0.352778"
       d="m 79.223659,121.52565 c 7.559837,-12.97249 25.666651,-43.826157 25.795431,-43.954937 1.2026,-1.202601 -1.21031,3.760393 -11.112907,22.857577 l -11.717202,22.59666 h -1.919528 -1.919529 z m 4.447673,1.33395 c 0,-0.0969 5.02656,-10.33871 11.170133,-22.75958 L 106.0116,77.51662 h 1.58012 1.58012 l -0.22123,2.116667 c -0.18696,1.788719 -0.13472,2.116666 0.33716,2.116666 0.47459,0 0.52153,-0.317658 0.31273,-2.116666 l -0.24567,-2.116667 h 2.0768 2.07679 l 12.84165,21.960415 c 7.0629,12.078225 13.06781,22.317605 13.34424,22.754165 0.49896,0.78799 0.48847,0.79375 -1.44494,0.79375 h -1.94755 l -11.00857,-21.16667 c -6.05472,-11.641661 -11.07059,-21.16666 -11.14638,-21.16666 -0.0758,0 4.62521,9.524999 10.44668,21.16666 l 10.58449,21.16667 h -10.20012 -10.20013 l -0.19795,-1.32292 c -0.10888,-0.7276 -0.29961,-2.07697 -0.42385,-2.99861 l -0.22588,-1.67569 h -4.68713 -4.68714 l -0.29989,2.91042 -0.2999,2.91041 -10.142357,0.0936 c -5.578299,0.0515 -10.142361,0.0143 -10.142361,-0.0826 z M 113.3016,111.29509 c -0.002,-0.43656 -0.10318,-1.62719 -0.22553,-2.64583 l -0.22246,-1.85209 h -3.45702 -3.45703 l -0.2207,1.6757 c -0.12138,0.92163 -0.30247,2.11225 -0.40242,2.64583 l -0.18172,0.97014 h 4.08497 c 4.00199,0 4.08491,-0.0161 4.08191,-0.79375 z m -1.26581,-10.23056 c -0.062,-0.43656 -0.20844,-1.547807 -0.32547,-2.469439 l -0.21278,-1.675695 h -2.27144 c -1.91828,0 -2.27544,0.09599 -2.29719,0.617362 -0.0142,0.339548 -0.14445,1.450798 -0.28953,2.469442 l -0.26378,1.85208 h 2.88645 c 2.79155,0 2.88273,-0.0261 2.77374,-0.79375 z m -1.32476,-11.288883 c -0.12235,-1.018646 -0.22384,-2.129896 -0.22552,-2.469444 -0.002,-0.469787 -0.29822,-0.617361 -1.23779,-0.617361 -1.06238,0 -1.23472,0.116227 -1.23472,0.832707 0,0.457988 -0.10096,1.569238 -0.22434,2.469444 l -0.22434,1.636737 h 1.68459 1.68459 z"
       id="path112" />
  </g>
</svg>
