<?xml version='1.0' encoding='UTF-8' standalone='no'?>
<!DOCTYPE svg PUBLIC '-//W3C//DTD SVG 1.1//EN' 'http://www.w3.org/Graphics/SVG/1.1/DTD/svg11.dtd'>
<!-- Animated using aniGen version 0.8.1 Quality of Life - http://anigen.org -->
<svg xmlns:dc="http://purl.org/dc/elements/1.1/" xmlns:cc="http://creativecommons.org/ns#" xmlns:rdf="http://www.w3.org/1999/02/22-rdf-syntax-ns#" xmlns:svg="http://www.w3.org/2000/svg" xmlns="http://www.w3.org/2000/svg" xmlns:xlink="http://www.w3.org/1999/xlink" xmlns:sodipodi="http://sodipodi.sourceforge.net/DTD/sodipodi-0.dtd" xmlns:inkscape="http://www.inkscape.org/namespaces/inkscape" version="1.1" preserveAspectRatio="xMidYMid" viewBox="0 0 559.89117 559.89117" width="559.89117px" height="559.89117px" id="svg66" sodipodi:docname="windturbine_3-blade.svg" inkscape:version="1.0.2 (e86c870879, 2021-01-15, custom)" xmlns:anigen="http://www.anigen.org/namespace" anigen:version="0.8.1">
  <metadata id="metadata70">
    <rdf:rdf id="rdf:rdf7585">
      <cc:work rdf:about="" id="cc:work7555">
        <dc:format id="dc:format9570">image/svg+xml</dc:format>
        <dc:type rdf:resource="http://purl.org/dc/dcmitype/StillImage" id="dc:type129"></dc:type>
        <dc:title id="dc:title8995"></dc:title>
      </cc:work>
    </rdf:rdf>
  </metadata>
  <sodipodi:namedview pagecolor="#ffffff" bordercolor="#666666" borderopacity="1" objecttolerance="10" gridtolerance="10" guidetolerance="10" inkscape:pageopacity="0" inkscape:pageshadow="2" inkscape:window-width="1920" inkscape:window-height="1137" id="namedview68" showgrid="false" fit-margin-top="0" fit-margin-left="0" fit-margin-right="0" fit-margin-bottom="0" inkscape:zoom="1.6241358880378456" inkscape:cx="314.0939406328266" inkscape:cy="-261.8627099659228" inkscape:window-x="1912" inkscape:window-y="-8" inkscape:window-maximized="1" inkscape:current-layer="g26"></sodipodi:namedview>
  <defs id="defs8">
    <path d="M 300,490 330,480 310,200 H 290 L 270,480 Z" id="j5mPIyCPHi"></path>
    <path d="M 300,490 330,480 310,200 H 290 L 270,480 Z" id="at3mWEY71"></path>
    <path d="m 251.64,170 -140,20 v 20 h 160 v -20 z" id="a65wHHTtn7"></path>
    <path d="m 349.64,172.96 52.68,-131.24 -17.32,-10 -80,138.56 17.32,10 z" id="e8hH83MQsH"></path>
    <path d="m 299,256.03 87.32,111.24 17.32,-10 -80,-138.56 -17.32,10 z" id="bNKCtGEgJ"></path>
    <path d="m 330,200 c 0,16.56 -13.44,30 -30,30 -16.56,0 -30,-13.44 -30,-30 0,-16.56 13.44,-30 30,-30 16.56,0 30,13.44 30,30 z" id="gN59rMagC"></path>
  </defs>
  <g id="g64" transform="translate(-20.027191,38.312943)">
    <g id="g62">
      <g id="g26">
        <g id="g16">
          <use xlink:href="#j5mPIyCPHi" opacity="1" fill="#ffffff" fill-opacity="1" id="use10" x="0" y="0" width="100%" height="100%"></use>
          <g id="g14">
            <use xlink:href="#j5mPIyCPHi" opacity="1" fill-opacity="0" stroke="#000000" stroke-width="1" stroke-opacity="0" id="use12" x="0" y="0" width="100%" height="100%"></use>
          </g>
        </g>
        <g id="g24">
          <use xlink:href="#at3mWEY71" opacity="1" fill="#ffffff" fill-opacity="1" id="use18" x="0" y="0" width="100%" height="100%"></use>
          <g id="g22">
            <use xlink:href="#at3mWEY71" opacity="1" fill-opacity="0" stroke="#000000" stroke-width="3" stroke-opacity="1" id="use20" x="0" y="0" width="100%" height="100%"></use>
          </g>
        </g>
      </g>
      <g class="turbine-rotor" id="g60" inkscape:transform-center-x="-24.835788738874328" inkscape:transform-center-y="34.32505869402013" transform="matrix(-0.5824100375175476 0.8128954172134399 -0.8128954172134399 -0.5824100375175476 637.0640869140625 72.11943054199219)">
        <g id="g34">
          <use xlink:href="#a65wHHTtn7" opacity="0.93" fill="#ffffff" fill-opacity="1" id="use28" x="0" y="0" width="100%" height="100%"></use>
          <g id="g32">
            <use xlink:href="#a65wHHTtn7" opacity="0.93" fill-opacity="0" stroke="#000000" stroke-width="3" stroke-opacity="1" id="use30" x="0" y="0" width="100%" height="100%"></use>
          </g>
        </g>
        <g id="g42">
          <use xlink:href="#e8hH83MQsH" opacity="0.93" fill="#ffffff" fill-opacity="1" id="use36" x="0" y="0" width="100%" height="100%"></use>
          <g id="g40">
            <use xlink:href="#e8hH83MQsH" opacity="0.93" fill-opacity="0" stroke="#000000" stroke-width="3" stroke-opacity="1" id="use38" x="0" y="0" width="100%" height="100%"></use>
          </g>
        </g>
        <g id="g50">
          <use xlink:href="#bNKCtGEgJ" opacity="0.93" fill="#ffffff" fill-opacity="1" id="use44" x="0" y="0" width="100%" height="100%"></use>
          <g id="g48">
            <use xlink:href="#bNKCtGEgJ" opacity="0.93" fill-opacity="0" stroke="#000000" stroke-width="3" stroke-opacity="1" id="use46" x="0" y="0" width="100%" height="100%"></use>
          </g>
        </g>
        <g id="g58">
          <use xlink:href="#gN59rMagC" opacity="1" fill="#aaaaaa" fill-opacity="1" id="use52" x="0" y="0" width="100%" height="100%"></use>
          <g id="g56">
            <use xlink:href="#gN59rMagC" opacity="1" fill-opacity="0" stroke="#000000" stroke-width="3" stroke-opacity="1" id="use54" x="0" y="0" width="100%" height="100%"></use>
          </g>
        </g>
      </g>
    </g>
  </g>

  <style>
    @keyframes spin {
      from {
          transform: rotate(0deg);
      }
      to {
          transform: rotate(360deg);
      }
    }

    .turbine-rotor {
        transform-origin: 300px 200px;

        animation-name: spin;
        animation-duration: 2s;
        animation-iteration-count: infinite;
        animation-timing-function: linear;
    }
  </style>
</svg>